{
  "aduki beans": "Beans, adzuki, mature seeds, raw",
  "black turtle beans": "Beans, black turtle, mature seeds, raw",
  "blackeye beans": "Cowpeas, common (blackeyes, crowder, southern), mature seeds, raw",
  "borlotti beans": "Beans, cranberry (roman), mature seeds, raw",
  "broadbeans": "Broadbeans (fava beans), mature seeds, raw",
  "butter beans": "Lima beans, large, mature seeds, raw",
  "cannellini beans": "Beans, white, mature seeds, raw",
  "chickpeas": "Chickpeas (garbanzo beans, bengal gram), mature seeds, raw",
  "green beans": "Beans, french, mature seeds, raw",
  "haricot beans": "Beans, navy, mature seeds, raw",
  "kidney beans": "Beans, kidney, red, mature seeds, raw",
  "lentils": "Lentils, raw",
  "lupins": "Lupins, mature seeds, raw",
  "mung beans": "Mung beans, mature seeds, raw",
  "peanuts": "Peanuts, all types, raw",
  "peas": "Peas, green, split, mature seeds, raw",
  "pinto beans": "Beans, pinto, mature seeds, raw (Includes foods for USDA's Food Distribution Program)",
  "soy beans": "Soybeans, mature seeds, raw"
}
